{
  "mod_python_config" :  "/home/saurabh/SE2-2017/web-backend/python/mod_python_config",
  "retries" : 5,
  "mod_python" : "../python/target_mod_python.py",
  "time_interval" :  1000,
  "time_interval_limit" : 300000
}
